…
```{r}
data(cholesterol, package = "dobson")
print(cholesterol)
#> # A tibble: 30 x 3
#> chol age bmi
#> <dbl> <dbl> <dbl>
#> 1 5.94 52 20.7
#> 2 4.71 46 21.3
#> 3 5.86 51 25.4
#> 4 6.52 44 22.7
#> 5 6.8 70 23.9
#> 6 5.23 33 24.3
#> 7 4.97 21 22.2
#> 8 8.78 63 26.2
#> 9 5.13 56 23.3
#> 10 6.74 54 29.2
#> # i 20 more rows
…
