204_hw1
…
$nsims
[1] 1000

$pi
[1] 0.7

$null
[1] 0.5

$alpha
[1] 0.05

$sim_results
# A tibble: 1,000 × 4
   estimates errors reject_null CI_true_val
       <dbl>  <dbl>       <dbl>       <dbl>
 1      0.68 0.0466           1           1
 2      0.69 0.0462           1           1
 3      0.69 0.0462           1           1
 4      0.61 0.0488           1           1
 5      0.64 0.048            1           1
 6      0.65 0.0477           1           1
 7      0.69 0.0462           1           1
 8      0.73 0.0444           1           1
 9      0.71 0.0454           1           1
10      0.79 0.0407           1           0
# ℹ 990 more rows
…
